<svg width="24" height="32" viewBox="0 0 24 32" fill="none" xmlns="http://www.w3.org/2000/svg">
<path d="M7.26295 31.8592C6.37642 32.3025 5.33333 31.6578 5.33333 30.6667V26C5.33333 25.2636 5.93029 24.6667 6.66667 24.6667C7.40305 24.6667 8 25.2636 8 26V28.5093L11.4037 26.8074C11.7791 26.6197 12.2209 26.6197 12.5963 26.8074L16 28.5093V21.3333C16 20.8564 16.2548 20.4157 16.6682 20.1778C19.5166 18.5381 21.3333 15.4073 21.3333 12C21.3333 6.84534 17.1547 2.66667 12 2.66667C6.84534 2.66667 2.66667 6.84534 2.66667 12C2.66667 17.1547 6.84534 21.3333 12 21.3333C12.7364 21.3333 13.3333 21.9303 13.3333 22.6667C13.3333 23.403 12.7364 24 12 24C5.37258 24 0 18.6274 0 12C0 5.37258 5.37258 0 12 0C18.6274 0 24 5.37258 24 12C24 16.0921 21.9523 19.8749 18.6667 22.0737V30.6667C18.6667 31.6578 17.6236 32.3025 16.737 31.8592L12 29.4907L7.26295 31.8592ZM15.0572 8.39052C15.5779 7.86983 16.4221 7.86983 16.9428 8.39052C17.4635 8.91122 17.4635 9.75544 16.9428 10.2761L11.6095 15.6095C11.0888 16.1302 10.2446 16.1302 9.72386 15.6095L7.05719 12.9428C6.53649 12.4221 6.53649 11.5779 7.05719 11.0572C7.57789 10.5365 8.42211 10.5365 8.94281 11.0572L10.6667 12.781L15.0572 8.39052Z" fill="#428E81"/>
</svg>
