<svg width="120" height="120" viewBox="0 0 120 120" fill="none" xmlns="http://www.w3.org/2000/svg">
<path d="M109.839 93.4181C108.299 95.7104 105.193 96.3204 102.9 94.7806C100.608 93.2408 99.998 90.1343 101.538 87.842C107.026 79.6719 110 70.064 110 60C110 32.3858 87.6142 10 60 10C32.3858 10 10 32.3858 10 60C10 87.6142 32.3858 110 60 110C70.1123 110 79.7638 106.997 87.958 101.46C90.2459 99.9135 93.3541 100.515 94.9003 102.803C96.4465 105.091 95.8452 108.199 93.5572 109.745C83.7223 116.392 72.1238 120 60 120C26.8629 120 0 93.1371 0 60C0 26.8629 26.8629 0 60 0C93.1371 0 120 26.8629 120 60C120 72.0658 116.426 83.6119 109.839 93.4181ZM70 85C72.7614 85 75 87.2386 75 90C75 92.7614 72.7614 95 70 95H68.2573C59.973 95 53.2573 88.2843 53.2573 80C53.2573 78.6063 53.4515 77.2193 53.8344 75.8792L56.5503 66.3736C57.3089 63.7184 55.7715 60.951 53.1163 60.1924C52.6696 60.0648 52.2073 60 51.7427 60H50C47.2386 60 45 57.7614 45 55C45 52.2386 47.2386 50 50 50H51.7427C53.1364 50 54.5234 50.1942 55.8635 50.5771C63.829 52.853 68.4414 61.1553 66.1656 69.1208L63.4497 78.6264C63.322 79.0731 63.2573 79.5354 63.2573 80C63.2573 82.7614 65.4959 85 68.2573 85H70ZM60 45C54.4772 45 50 40.5228 50 35C50 29.4772 54.4772 25 60 25C65.5229 25 70 29.4772 70 35C70 40.5228 65.5229 45 60 45Z" fill="#E1E3ED"/>
</svg>
